…
Citations

``` r
s2_papers("14a22b032524573d15593abed170f9f76359e581")$citations
#> [[1]]
#> # A tibble: 283 x 10
#>    citations_arxiv_id citations_authors citations_doi           citations_intent
#>    <lgl>              <list>            <chr>                   <list>          
#>  1 NA                 <df [3 × 2]>      10.1101/2021.01.06.425… <chr [1]>       
#>  2 NA                 <df [5 × 2]>      10.1186/s12870-021-030… <chr [0]>       
#>  3 NA                 <df [3 × 2]>      10.1101/2021.03.03.433… <chr [1]>       
#>  4 NA                 <df [5 × 2]>      10.3389/fpls.2021.6286… <chr [0]>       
#>  5 NA                 <df [5 × 2]>      10.1101/2021.06.03.446… <chr [0]>       
#>  6 NA                 <df [5 × 2]>      10.1101/2021.02.17.431… <chr [0]>       
#>  7 NA                 <df [12 × 2]>     10.1038/s41467-020-205… <chr [0]>       
#>  8 NA                 <df [3 × 2]>      10.3389/fpls.2021.6524… <chr [1]>       
#>  9 NA                 <df [13 × 2]>     10.1101/2021.01.28.428… <chr [1]>       
#> 10 NA                 <df [12 × 2]>     10.1101/2020.04.02.021… <chr [1]>       
#> # … with 273 more rows, and 6 more variables: citations_is_influential <lgl>,
#> #   citations_paper_id <chr>, citations_title <chr>, citations_url <chr>,
#> #   citations_venue <chr>, citations_year <int>
```
…
